-- Merging decision tree log ---
provider#nl.xservices.plugins.FileProvider
INJECTED from /Users/macbook/Documents/FlashLend/platforms/android/app/src/main/AndroidManifest.xml:17:9-19:20
	android:grantUriPermissions
		ADDED from /Users/macbook/Documents/FlashLend/platforms/android/app/src/main/AndroidManifest.xml:17:100-134
	android:authorities
		INJECTED from /Users/macbook/Documents/FlashLend/platforms/android/app/src/main/AndroidManifest.xml
		ADDED from /Users/macbook/Documents/FlashLend/platforms/android/app/src/main/AndroidManifest.xml:17:19-74
	android:exported
		ADDED from /Users/macbook/Documents/FlashLend/platforms/android/app/src/main/AndroidManifest.xml:17:75-99
	android:name
		ADDED from /Users/macbook/Documents/FlashLend/platforms/android/app/src/main/AndroidManifest.xml:17:135-183
manifest
ADDED from /Users/macbook/Documents/FlashLend/platforms/android/app/src/main/AndroidManifest.xml:2:1-26:12
INJECTED from /Users/macbook/Documents/FlashLend/platforms/android/app/src/main/AndroidManifest.xml:2:1-26:12
INJECTED from /Users/macbook/Documents/FlashLend/platforms/android/app/src/main/AndroidManifest.xml:2:1-26:12
INJECTED from /Users/macbook/Documents/FlashLend/platforms/android/app/src/main/AndroidManifest.xml:2:1-26:12
MERGED from [org.xwalk:xwalk_core_library:23.53.589.4] /Users/macbook/.gradle/caches/transforms-1/files-1.1/xwalk_core_library-23.53.589.4.aar/f8d45dae82de6bd0e90a5898f52b3fa6/AndroidManifest.xml:1:1-9:12
MERGED from [com.android.support:support-v4:27.1.0] /Users/macbook/.gradle/caches/transforms-1/files-1.1/support-v4-27.1.0.aar/28e7839d02cc0fc1397d3bf14cef6370/AndroidManifest.xml:17:1-22:12
MERGED from [com.android.support:support-media-compat:27.1.0] /Users/macbook/.gradle/caches/transforms-1/files-1.1/support-media-compat-27.1.0.aar/8b96dac5247adf40ee3e0c5d77aebadb/AndroidManifest.xml:17:1-22:12
MERGED from [com.android.support:support-fragment:27.1.0] /Users/macbook/.gradle/caches/transforms-1/files-1.1/support-fragment-27.1.0.aar/e73a1876399d93b0df8bc8c4f37c86f8/AndroidManifest.xml:17:1-22:12
MERGED from [com.android.support:support-core-ui:27.1.0] /Users/macbook/.gradle/caches/transforms-1/files-1.1/support-core-ui-27.1.0.aar/07bd79c08355f1e56b990125c47d696a/AndroidManifest.xml:17:1-22:12
MERGED from [com.android.support:support-core-utils:27.1.0] /Users/macbook/.gradle/caches/transforms-1/files-1.1/support-core-utils-27.1.0.aar/541d0945eee78555ad983c0aba199e9f/AndroidManifest.xml:17:1-22:12
MERGED from [com.android.support:support-compat:27.1.0] /Users/macbook/.gradle/caches/transforms-1/files-1.1/support-compat-27.1.0.aar/8ea8feb7c8817aca8610640ccfdbf1dc/AndroidManifest.xml:17:1-22:12
MERGED from [:CordovaLib] /Users/macbook/Documents/FlashLend/platforms/android/CordovaLib/build/intermediates/manifests/full/debug/AndroidManifest.xml:20:1-27:12
MERGED from [android.arch.lifecycle:runtime:1.1.0] /Users/macbook/.gradle/caches/transforms-1/files-1.1/runtime-1.1.0.aar/6adaf8e31ee21bf61689b587f7b2bc29/AndroidManifest.xml:17:1-22:12
MERGED from [android.arch.lifecycle:livedata-core:1.1.0] /Users/macbook/.gradle/caches/transforms-1/files-1.1/livedata-core-1.1.0.aar/e9e9e977a54c93ffe5c08dc0032da1fd/AndroidManifest.xml:17:1-22:12
MERGED from [android.arch.lifecycle:viewmodel:1.1.0] /Users/macbook/.gradle/caches/transforms-1/files-1.1/viewmodel-1.1.0.aar/1e0b2b8dcd7d2c72ed37ed734b007d5c/AndroidManifest.xml:17:1-22:12
MERGED from [android.arch.core:runtime:1.1.0] /Users/macbook/.gradle/caches/transforms-1/files-1.1/runtime-1.1.0.aar/22117f5096b2581ff5e1fee5652c9641/AndroidManifest.xml:17:1-22:12
INJECTED from /Users/macbook/Documents/FlashLend/platforms/android/app/src/main/AndroidManifest.xml:2:1-26:12
INJECTED from /Users/macbook/Documents/FlashLend/platforms/android/app/src/main/AndroidManifest.xml:2:1-26:12
INJECTED from /Users/macbook/Documents/FlashLend/platforms/android/app/src/main/AndroidManifest.xml:2:1-26:12
	package
		ADDED from /Users/macbook/Documents/FlashLend/platforms/android/app/src/main/AndroidManifest.xml:2:98-136
		INJECTED from /Users/macbook/Documents/FlashLend/platforms/android/app/src/main/AndroidManifest.xml
		INJECTED from /Users/macbook/Documents/FlashLend/platforms/android/app/src/main/AndroidManifest.xml
	android:versionName
		ADDED from /Users/macbook/Documents/FlashLend/platforms/android/app/src/main/AndroidManifest.xml:2:70-97
		INJECTED from /Users/macbook/Documents/FlashLend/platforms/android/app/src/main/AndroidManifest.xml
		INJECTED from /Users/macbook/Documents/FlashLend/platforms/android/app/src/main/AndroidManifest.xml
	android:hardwareAccelerated
		ADDED from /Users/macbook/Documents/FlashLend/platforms/android/app/src/main/AndroidManifest.xml:2:11-45
	xmlns:android
		ADDED from /Users/macbook/Documents/FlashLend/platforms/android/app/src/main/AndroidManifest.xml:2:137-195
	android:versionCode
		ADDED from /Users/macbook/Documents/FlashLend/platforms/android/app/src/main/AndroidManifest.xml:2:46-69
		INJECTED from /Users/macbook/Documents/FlashLend/platforms/android/app/src/main/AndroidManifest.xml
		INJECTED from /Users/macbook/Documents/FlashLend/platforms/android/app/src/main/AndroidManifest.xml
supports-screens
ADDED from /Users/macbook/Documents/FlashLend/platforms/android/app/src/main/AndroidManifest.xml:3:5-191
	android:largeScreens
		ADDED from /Users/macbook/Documents/FlashLend/platforms/android/app/src/main/AndroidManifest.xml:3:49-76
	android:smallScreens
		ADDED from /Users/macbook/Documents/FlashLend/platforms/android/app/src/main/AndroidManifest.xml:3:132-159
	android:normalScreens
		ADDED from /Users/macbook/Documents/FlashLend/platforms/android/app/src/main/AndroidManifest.xml:3:77-105
	android:xlargeScreens
		ADDED from /Users/macbook/Documents/FlashLend/platforms/android/app/src/main/AndroidManifest.xml:3:160-188
	android:resizeable
		ADDED from /Users/macbook/Documents/FlashLend/platforms/android/app/src/main/AndroidManifest.xml:3:106-131
	android:anyDensity
		ADDED from /Users/macbook/Documents/FlashLend/platforms/android/app/src/main/AndroidManifest.xml:3:23-48
uses-permission#android.permission.INTERNET
ADDED from /Users/macbook/Documents/FlashLend/platforms/android/app/src/main/AndroidManifest.xml:4:5-67
	android:name
		ADDED from /Users/macbook/Documents/FlashLend/platforms/android/app/src/main/AndroidManifest.xml:4:22-64
application
ADDED from /Users/macbook/Documents/FlashLend/platforms/android/app/src/main/AndroidManifest.xml:5:5-20:19
	android:supportsRtl
		ADDED from /Users/macbook/Documents/FlashLend/platforms/android/app/src/main/AndroidManifest.xml:5:114-140
	android:label
		ADDED from /Users/macbook/Documents/FlashLend/platforms/android/app/src/main/AndroidManifest.xml:5:81-113
	android:hardwareAccelerated
		ADDED from /Users/macbook/Documents/FlashLend/platforms/android/app/src/main/AndroidManifest.xml:5:18-52
	android:icon
		ADDED from /Users/macbook/Documents/FlashLend/platforms/android/app/src/main/AndroidManifest.xml:5:53-80
activity#io.fidelity.fidelityfastloan.MainActivity
ADDED from /Users/macbook/Documents/FlashLend/platforms/android/app/src/main/AndroidManifest.xml:6:9-11:20
	android:screenOrientation
		ADDED from /Users/macbook/Documents/FlashLend/platforms/android/app/src/main/AndroidManifest.xml:6:194-230
	android:label
		ADDED from /Users/macbook/Documents/FlashLend/platforms/android/app/src/main/AndroidManifest.xml:6:97-134
	android:launchMode
		ADDED from /Users/macbook/Documents/FlashLend/platforms/android/app/src/main/AndroidManifest.xml:6:135-165
	android:windowSoftInputMode
		ADDED from /Users/macbook/Documents/FlashLend/platforms/android/app/src/main/AndroidManifest.xml:6:294-336
	android:configChanges
		ADDED from /Users/macbook/Documents/FlashLend/platforms/android/app/src/main/AndroidManifest.xml:6:19-96
	android:theme
		ADDED from /Users/macbook/Documents/FlashLend/platforms/android/app/src/main/AndroidManifest.xml:6:231-293
	android:name
		ADDED from /Users/macbook/Documents/FlashLend/platforms/android/app/src/main/AndroidManifest.xml:6:166-193
intent-filter#android.intent.action.MAIN+android.intent.category.LAUNCHER
ADDED from /Users/macbook/Documents/FlashLend/platforms/android/app/src/main/AndroidManifest.xml:7:13-10:29
	android:label
		ADDED from /Users/macbook/Documents/FlashLend/platforms/android/app/src/main/AndroidManifest.xml:7:28-65
action#android.intent.action.MAIN
ADDED from /Users/macbook/Documents/FlashLend/platforms/android/app/src/main/AndroidManifest.xml:8:17-69
	android:name
		ADDED from /Users/macbook/Documents/FlashLend/platforms/android/app/src/main/AndroidManifest.xml:8:25-66
category#android.intent.category.LAUNCHER
ADDED from /Users/macbook/Documents/FlashLend/platforms/android/app/src/main/AndroidManifest.xml:9:17-77
	android:name
		ADDED from /Users/macbook/Documents/FlashLend/platforms/android/app/src/main/AndroidManifest.xml:9:27-74
receiver#nl.xservices.plugins.ShareChooserPendingIntent
ADDED from /Users/macbook/Documents/FlashLend/platforms/android/app/src/main/AndroidManifest.xml:12:9-16:20
	android:enabled
		ADDED from /Users/macbook/Documents/FlashLend/platforms/android/app/src/main/AndroidManifest.xml:12:19-41
	android:name
		ADDED from /Users/macbook/Documents/FlashLend/platforms/android/app/src/main/AndroidManifest.xml:12:42-103
intent-filter#android.intent.action.SEND
ADDED from /Users/macbook/Documents/FlashLend/platforms/android/app/src/main/AndroidManifest.xml:13:13-15:29
action#android.intent.action.SEND
ADDED from /Users/macbook/Documents/FlashLend/platforms/android/app/src/main/AndroidManifest.xml:14:17-69
	android:name
		ADDED from /Users/macbook/Documents/FlashLend/platforms/android/app/src/main/AndroidManifest.xml:14:25-66
uses-sdk
ADDED from /Users/macbook/Documents/FlashLend/platforms/android/app/src/main/AndroidManifest.xml:21:5-74
INJECTED from /Users/macbook/Documents/FlashLend/platforms/android/app/src/main/AndroidManifest.xml:21:5-74
MERGED from [org.xwalk:xwalk_core_library:23.53.589.4] /Users/macbook/.gradle/caches/transforms-1/files-1.1/xwalk_core_library-23.53.589.4.aar/f8d45dae82de6bd0e90a5898f52b3fa6/AndroidManifest.xml:6:5-8:41
MERGED from [org.xwalk:xwalk_core_library:23.53.589.4] /Users/macbook/.gradle/caches/transforms-1/files-1.1/xwalk_core_library-23.53.589.4.aar/f8d45dae82de6bd0e90a5898f52b3fa6/AndroidManifest.xml:6:5-8:41
MERGED from [com.android.support:support-v4:27.1.0] /Users/macbook/.gradle/caches/transforms-1/files-1.1/support-v4-27.1.0.aar/28e7839d02cc0fc1397d3bf14cef6370/AndroidManifest.xml:20:5-44
MERGED from [com.android.support:support-v4:27.1.0] /Users/macbook/.gradle/caches/transforms-1/files-1.1/support-v4-27.1.0.aar/28e7839d02cc0fc1397d3bf14cef6370/AndroidManifest.xml:20:5-44
MERGED from [com.android.support:support-media-compat:27.1.0] /Users/macbook/.gradle/caches/transforms-1/files-1.1/support-media-compat-27.1.0.aar/8b96dac5247adf40ee3e0c5d77aebadb/AndroidManifest.xml:20:5-44
MERGED from [com.android.support:support-media-compat:27.1.0] /Users/macbook/.gradle/caches/transforms-1/files-1.1/support-media-compat-27.1.0.aar/8b96dac5247adf40ee3e0c5d77aebadb/AndroidManifest.xml:20:5-44
MERGED from [com.android.support:support-fragment:27.1.0] /Users/macbook/.gradle/caches/transforms-1/files-1.1/support-fragment-27.1.0.aar/e73a1876399d93b0df8bc8c4f37c86f8/AndroidManifest.xml:20:5-44
MERGED from [com.android.support:support-fragment:27.1.0] /Users/macbook/.gradle/caches/transforms-1/files-1.1/support-fragment-27.1.0.aar/e73a1876399d93b0df8bc8c4f37c86f8/AndroidManifest.xml:20:5-44
MERGED from [com.android.support:support-core-ui:27.1.0] /Users/macbook/.gradle/caches/transforms-1/files-1.1/support-core-ui-27.1.0.aar/07bd79c08355f1e56b990125c47d696a/AndroidManifest.xml:20:5-44
MERGED from [com.android.support:support-core-ui:27.1.0] /Users/macbook/.gradle/caches/transforms-1/files-1.1/support-core-ui-27.1.0.aar/07bd79c08355f1e56b990125c47d696a/AndroidManifest.xml:20:5-44
MERGED from [com.android.support:support-core-utils:27.1.0] /Users/macbook/.gradle/caches/transforms-1/files-1.1/support-core-utils-27.1.0.aar/541d0945eee78555ad983c0aba199e9f/AndroidManifest.xml:20:5-44
MERGED from [com.android.support:support-core-utils:27.1.0] /Users/macbook/.gradle/caches/transforms-1/files-1.1/support-core-utils-27.1.0.aar/541d0945eee78555ad983c0aba199e9f/AndroidManifest.xml:20:5-44
MERGED from [com.android.support:support-compat:27.1.0] /Users/macbook/.gradle/caches/transforms-1/files-1.1/support-compat-27.1.0.aar/8ea8feb7c8817aca8610640ccfdbf1dc/AndroidManifest.xml:20:5-44
MERGED from [com.android.support:support-compat:27.1.0] /Users/macbook/.gradle/caches/transforms-1/files-1.1/support-compat-27.1.0.aar/8ea8feb7c8817aca8610640ccfdbf1dc/AndroidManifest.xml:20:5-44
MERGED from [:CordovaLib] /Users/macbook/Documents/FlashLend/platforms/android/CordovaLib/build/intermediates/manifests/full/debug/AndroidManifest.xml:25:5-44
MERGED from [:CordovaLib] /Users/macbook/Documents/FlashLend/platforms/android/CordovaLib/build/intermediates/manifests/full/debug/AndroidManifest.xml:25:5-44
MERGED from [android.arch.lifecycle:runtime:1.1.0] /Users/macbook/.gradle/caches/transforms-1/files-1.1/runtime-1.1.0.aar/6adaf8e31ee21bf61689b587f7b2bc29/AndroidManifest.xml:20:5-44
MERGED from [android.arch.lifecycle:runtime:1.1.0] /Users/macbook/.gradle/caches/transforms-1/files-1.1/runtime-1.1.0.aar/6adaf8e31ee21bf61689b587f7b2bc29/AndroidManifest.xml:20:5-44
MERGED from [android.arch.lifecycle:livedata-core:1.1.0] /Users/macbook/.gradle/caches/transforms-1/files-1.1/livedata-core-1.1.0.aar/e9e9e977a54c93ffe5c08dc0032da1fd/AndroidManifest.xml:20:5-44
MERGED from [android.arch.lifecycle:livedata-core:1.1.0] /Users/macbook/.gradle/caches/transforms-1/files-1.1/livedata-core-1.1.0.aar/e9e9e977a54c93ffe5c08dc0032da1fd/AndroidManifest.xml:20:5-44
MERGED from [android.arch.lifecycle:viewmodel:1.1.0] /Users/macbook/.gradle/caches/transforms-1/files-1.1/viewmodel-1.1.0.aar/1e0b2b8dcd7d2c72ed37ed734b007d5c/AndroidManifest.xml:20:5-44
MERGED from [android.arch.lifecycle:viewmodel:1.1.0] /Users/macbook/.gradle/caches/transforms-1/files-1.1/viewmodel-1.1.0.aar/1e0b2b8dcd7d2c72ed37ed734b007d5c/AndroidManifest.xml:20:5-44
MERGED from [android.arch.core:runtime:1.1.0] /Users/macbook/.gradle/caches/transforms-1/files-1.1/runtime-1.1.0.aar/22117f5096b2581ff5e1fee5652c9641/AndroidManifest.xml:20:5-44
MERGED from [android.arch.core:runtime:1.1.0] /Users/macbook/.gradle/caches/transforms-1/files-1.1/runtime-1.1.0.aar/22117f5096b2581ff5e1fee5652c9641/AndroidManifest.xml:20:5-44
INJECTED from /Users/macbook/Documents/FlashLend/platforms/android/app/src/main/AndroidManifest.xml:21:5-74
	android:targetSdkVersion
		ADDED from /Users/macbook/Documents/FlashLend/platforms/android/app/src/main/AndroidManifest.xml:21:42-71
	android:minSdkVersion
		ADDED from /Users/macbook/Documents/FlashLend/platforms/android/app/src/main/AndroidManifest.xml:21:15-41
		INJECTED from /Users/macbook/Documents/FlashLend/platforms/android/app/src/main/AndroidManifest.xml
		INJECTED from /Users/macbook/Documents/FlashLend/platforms/android/app/src/main/AndroidManifest.xml
uses-permission#android.permission.ACCESS_NETWORK_STATE
ADDED from /Users/macbook/Documents/FlashLend/platforms/android/app/src/main/AndroidManifest.xml:22:5-79
	android:name
		ADDED from /Users/macbook/Documents/FlashLend/platforms/android/app/src/main/AndroidManifest.xml:22:22-76
uses-permission#android.permission.ACCESS_WIFI_STATE
ADDED from /Users/macbook/Documents/FlashLend/platforms/android/app/src/main/AndroidManifest.xml:23:5-76
	android:name
		ADDED from /Users/macbook/Documents/FlashLend/platforms/android/app/src/main/AndroidManifest.xml:23:22-73
uses-permission#android.permission.USE_FINGERPRINT
ADDED from /Users/macbook/Documents/FlashLend/platforms/android/app/src/main/AndroidManifest.xml:24:5-74
	android:name
		ADDED from /Users/macbook/Documents/FlashLend/platforms/android/app/src/main/AndroidManifest.xml:24:22-71
uses-permission#android.permission.WRITE_EXTERNAL_STORAGE
ADDED from /Users/macbook/Documents/FlashLend/platforms/android/app/src/main/AndroidManifest.xml:25:5-81
	android:name
		ADDED from /Users/macbook/Documents/FlashLend/platforms/android/app/src/main/AndroidManifest.xml:25:22-78
meta-data#android.support.FILE_PROVIDER_PATHS
ADDED from /Users/macbook/Documents/FlashLend/platforms/android/app/src/main/AndroidManifest.xml:18:13-115
	android:resource
		ADDED from /Users/macbook/Documents/FlashLend/platforms/android/app/src/main/AndroidManifest.xml:18:75-112
	android:name
		ADDED from /Users/macbook/Documents/FlashLend/platforms/android/app/src/main/AndroidManifest.xml:18:24-74
